Course project 1 in Reproducible Research
…
dataF <- read.table("/Users/QianWang/Documents/Coursera_reproducible/week2/activity.csv", header=TRUE, sep=",")

What is mean total number of steps taken per day?

Calculate the total number of steps taken per day

df <- tbl_df(dataF)
df1 <- df %>%
      filter(!is.na(steps)) %>%
      group_by(date) %>%
      summarise(steps_day = sum(steps))
df1

## # A tibble: 53 × 2
##          date steps_day
##        <fctr>     <int>
## 1  2012-10-02       126
## 2  2012-10-03     11352
## 3  2012-10-04     12116
## 4  2012-10-05     13294
## 5  2012-10-06     15420
## 6  2012-10-07     11015
## 7  2012-10-09     12811
## 8  2012-10-10      9900
## 9  2012-10-11     10304
## 10 2012-10-12     17382
## # ... with 43 more rows
…
## [1] 10766.19

The “mean” value did not change; the “median” value slight changed from 10765 to 10766.19 (0.01%).

Are there differences in activity patterns between weekdays and weekends?

Create a new factor variable in the dataset with two levels – “weekday” and “weekend” indicating whether a given date is a weekday or weekend day.

dff$date <- as.Date(dff$date)
df4 <- dff %>%
      mutate(wkds=ifelse(weekdays(dff$date)=="Saturday" | weekdays(dff$date)=="Sunday","weekend","weekday"))
df4$wkds <- as.factor(df4$wkds)
df4

## # A tibble: 17,568 × 4
##        steps       date interval    wkds
##        <dbl>     <date>    <int>  <fctr>
## 1  1.7169811 2012-10-01        0 weekday
## 2  0.3396226 2012-10-01        5 weekday
## 3  0.1320755 2012-10-01       10 weekday
## 4  0.1509434 2012-10-01       15 weekday
## 5  0.0754717 2012-10-01       20 weekday
## 6  2.0943396 2012-10-01       25 weekday
## 7  0.5283019 2012-10-01       30 weekday
## 8  0.8679245 2012-10-01       35 weekday
## 9  0.0000000 2012-10-01       40 weekday
## 10 1.4716981 2012-10-01       45 weekday
## # ... with 17,558 more rows
…
