…
##### Q 1: Calculate the total number of steps taken per day  


```r
steps_per_day <- activityData %>%
    filter(!is.na(steps)) %>% ## filter out rows that have NA in the steps columns
    group_by(date) %>%
    summarize(daily_total = sum(steps))  

steps_per_day ## this should have total daily steps for each day/date  
```

```
## # A tibble: 53 x 2
##    date       daily_total
##    <date>           <int>
##  1 2012-10-02         126
##  2 2012-10-03       11352
##  3 2012-10-04       12116
##  4 2012-10-05       13294
##  5 2012-10-06       15420
##  6 2012-10-07       11015
##  7 2012-10-09       12811
##  8 2012-10-10        9900
##  9 2012-10-11       10304
## 10 2012-10-12       17382
## # ... with 43 more rows
```
…
##### Q4: Make a histogram of the total number of steps taken each day and Calculate and report the mean and median total number of steps taken per day. Do these values differ from the estimates from the first part of the assignment? What is the impact of imputing missing data on the estimates of the total daily number of steps?  


```r
steps_per_day <- imputed_activityData %>%
    filter(!is.na(steps)) %>% ## filter out rows that have NA in the steps columns
    group_by(date) %>%
    summarize(daily_total = sum(steps))  

steps_per_day ## this should have total daily steps for each day/date  
```

```
## # A tibble: 61 x 2
##    date       daily_total
##    <date>           <dbl>
##  1 2012-10-01      10766.
##  2 2012-10-02        126 
##  3 2012-10-03      11352 
##  4 2012-10-04      12116 
##  5 2012-10-05      13294 
##  6 2012-10-06      15420 
##  7 2012-10-07      11015 
##  8 2012-10-08      10766.
##  9 2012-10-09      12811 
## 10 2012-10-10       9900 
## # ... with 51 more rows
```
…
