…
```r
total <- activity %>% group_by(date) %>% summarise(total = sum(steps, na.rm = T))
```

```
## `summarise()` ungrouping output (override with `.groups` argument)
```

```r
total
```

```
## # A tibble: 61 x 2
##    date       total
##    <date>     <int>
##  1 2012-10-01     0
##  2 2012-10-02   126
##  3 2012-10-03 11352
##  4 2012-10-04 12116
##  5 2012-10-05 13294
##  6 2012-10-06 15420
##  7 2012-10-07 11015
##  8 2012-10-08     0
##  9 2012-10-09 12811
## 10 2012-10-10  9900
## # … with 51 more rows
```
…
```r
average <- activity %>% group_by(interval) %>% summarise(average = mean(steps, na.rm = T))
```

```
## `summarise()` ungrouping output (override with `.groups` argument)
```

```r
average
```

```
## # A tibble: 288 x 2
##    interval average
##       <int>   <dbl>
##  1        0  1.72  
##  2        5  0.340 
##  3       10  0.132 
##  4       15  0.151 
##  5       20  0.0755
##  6       25  2.09  
##  7       30  0.528 
##  8       35  0.868 
##  9       40  0     
## 10       45  1.47  
## # … with 278 more rows
```
…
```r
average2 <- activity_imputed %>% group_by(day, interval) %>% summarise(mean = mean(steps))
```

```
## `summarise()` regrouping output by 'day' (override with `.groups` argument)
```

```r
average2
```

```
## # A tibble: 576 x 3
## # Groups:   day [2]
##    day     interval  mean
##    <chr>      <int> <dbl>
##  1 Weekday        0  7.01
##  2 Weekday        5  5.38
##  3 Weekday       10  5.14
##  4 Weekday       15  5.16
##  5 Weekday       20  5.07
##  6 Weekday       25  6.30
##  7 Weekday       30  5.61
##  8 Weekday       35  6.01
##  9 Weekday       40  4.98
## 10 Weekday       45  6.58
## # … with 566 more rows
```
…
